{
    "env_name": "production",
    "service_port" : 8003,
    "db_type": "mongo",

	"mongo_host": "mongodb://localhost:27017/listenField",

	"local_url": "http://localhost:",
	"authen_url": "http://localhost:3000/verifyToken"
}
